{"sourceFile": [{
      "name": "",
      "directive": [{
          "functionName": "bwt",
          "label": "",
          "functionLabel": "",
          "pragma": {
            "name": "TOP",
            "option": [{
                "name": "name",
                "value": "bwt"
              }]
          }
        }]
    }]}
