; ModuleID = 'C:/Users/Adetayo/Desktop/es01_bwt/solution1/.autopilot/db/a.g.ld.5.gdce.bc'
source_filename = "llvm-link"
target datalayout = "e-m:e-i64:64-i128:128-i256:256-i512:512-i1024:1024-i2048:2048-i4096:4096-n8:16:32:64-S128-v16:16-v24:32-v32:32-v48:64-v96:128-v192:256-v256:256-v512:512-v1024:1024"
target triple = "fpga64-xilinx-none"

; Function Attrs: noinline
define void @apatb_bwt_ir(i32 %len, i32* %data, [128 x i32]* %transform) local_unnamed_addr #0 {
entry:
  %data_copy = alloca [128 x i32], align 512
  %transform_copy = alloca [128 x i32], align 512
  %0 = bitcast i32* %data to [128 x i32]*
  call fastcc void @copy_in([128 x i32]* %0, [128 x i32]* nonnull align 512 %data_copy, [128 x i32]* %transform, [128 x i32]* nonnull align 512 %transform_copy)
  %1 = getelementptr inbounds [128 x i32], [128 x i32]* %data_copy, i32 0, i32 0
  call void @apatb_bwt_hw(i32 %len, i32* %1, [128 x i32]* %transform_copy)
  call fastcc void @copy_out([128 x i32]* %0, [128 x i32]* nonnull align 512 %data_copy, [128 x i32]* %transform, [128 x i32]* nonnull align 512 %transform_copy)
  ret void
}

; Function Attrs: argmemonly noinline
define internal fastcc void @copy_in([128 x i32]* readonly, [128 x i32]* noalias align 512, [128 x i32]* readonly, [128 x i32]* noalias align 512) unnamed_addr #1 {
entry:
  call fastcc void @onebyonecpy_hls.p0a128i32([128 x i32]* align 512 %1, [128 x i32]* %0)
  call fastcc void @onebyonecpy_hls.p0a128i32([128 x i32]* align 512 %3, [128 x i32]* %2)
  ret void
}

; Function Attrs: argmemonly noinline
define internal fastcc void @onebyonecpy_hls.p0a128i32([128 x i32]* noalias align 512, [128 x i32]* noalias readonly) unnamed_addr #2 {
entry:
  %2 = icmp eq [128 x i32]* %0, null
  %3 = icmp eq [128 x i32]* %1, null
  %4 = or i1 %2, %3
  br i1 %4, label %ret, label %copy

copy:                                             ; preds = %entry
  br label %for.loop

for.loop:                                         ; preds = %for.loop, %copy
  %for.loop.idx3 = phi i64 [ 0, %copy ], [ %for.loop.idx.next, %for.loop ]
  %dst.addr.gep1 = getelementptr [128 x i32], [128 x i32]* %0, i64 0, i64 %for.loop.idx3
  %5 = bitcast i32* %dst.addr.gep1 to i8*
  %src.addr.gep2 = getelementptr [128 x i32], [128 x i32]* %1, i64 0, i64 %for.loop.idx3
  %6 = bitcast i32* %src.addr.gep2 to i8*
  call void @llvm.memcpy.p0i8.p0i8.i64(i8* align 1 %5, i8* align 1 %6, i64 4, i1 false)
  %for.loop.idx.next = add nuw nsw i64 %for.loop.idx3, 1
  %exitcond = icmp ne i64 %for.loop.idx.next, 128
  br i1 %exitcond, label %for.loop, label %ret

ret:                                              ; preds = %for.loop, %entry
  ret void
}

; Function Attrs: argmemonly nounwind
declare void @llvm.memcpy.p0i8.p0i8.i64(i8* nocapture writeonly, i8* nocapture readonly, i64, i1) #3

; Function Attrs: argmemonly noinline
define internal fastcc void @copy_out([128 x i32]*, [128 x i32]* noalias readonly align 512, [128 x i32]*, [128 x i32]* noalias readonly align 512) unnamed_addr #4 {
entry:
  call fastcc void @onebyonecpy_hls.p0a128i32([128 x i32]* %0, [128 x i32]* align 512 %1)
  call fastcc void @onebyonecpy_hls.p0a128i32([128 x i32]* %2, [128 x i32]* align 512 %3)
  ret void
}

declare void @apatb_bwt_hw(i32, i32*, [128 x i32]*)

define void @bwt_hw_stub_wrapper(i32, i32*, [128 x i32]*) #5 {
entry:
  %3 = bitcast i32* %1 to [128 x i32]*
  call void @copy_out([128 x i32]* null, [128 x i32]* %3, [128 x i32]* null, [128 x i32]* %2)
  %4 = bitcast [128 x i32]* %3 to i32*
  call void @bwt_hw_stub(i32 %0, i32* %4, [128 x i32]* %2)
  call void @copy_in([128 x i32]* null, [128 x i32]* %3, [128 x i32]* null, [128 x i32]* %2)
  ret void
}

declare void @bwt_hw_stub(i32, i32*, [128 x i32]*)

attributes #0 = { noinline "fpga.wrapper.func"="wrapper" }
attributes #1 = { argmemonly noinline "fpga.wrapper.func"="copyin" }
attributes #2 = { argmemonly noinline "fpga.wrapper.func"="onebyonecpy_hls" }
attributes #3 = { argmemonly nounwind }
attributes #4 = { argmemonly noinline "fpga.wrapper.func"="copyout" }
attributes #5 = { "fpga.wrapper.func"="stub" }

!llvm.dbg.cu = !{}
!llvm.ident = !{!0, !0, !0, !0, !0, !0, !0, !0, !0, !0, !0, !0, !0, !0, !0, !0, !0, !0, !0, !0, !0, !0, !0, !0, !0, !0, !0, !0, !0, !0, !0, !0, !0, !0, !0, !0, !0, !0, !0, !0, !0, !0, !0, !0, !0, !0, !0, !0, !0, !0, !0, !0, !0, !0, !0, !0, !0, !0, !0, !0, !0, !0, !0, !0, !0, !0, !0, !0, !0, !0, !0, !0, !0, !0, !0, !0, !0, !0, !0, !0, !0, !0, !0, !0, !0, !0, !0, !0, !0, !0, !0, !0, !0, !0, !0, !0, !0, !0, !0, !0, !0, !0, !0, !0, !0, !0, !0, !0, !0, !0, !0, !0, !0, !0, !0, !0, !0, !0, !0, !0, !0, !0, !0, !0, !0, !0, !0, !0, !0, !0, !0, !0, !0, !0, !0, !0, !0, !0, !0, !0, !0, !0, !0, !0, !0, !0, !0, !0, !0, !0, !0, !0, !0, !0, !0, !0, !0, !0, !0, !0, !0, !0, !0, !0, !0, !0, !0, !0, !0, !0, !0, !0, !0, !0, !0, !0, !0, !0, !0, !0, !0, !0, !0, !0, !0, !0, !0, !0, !0, !0, !0, !0, !0, !0, !0, !0, !0, !0, !0, !0, !0, !0, !0, !0, !0, !0, !0, !0, !0, !0, !0, !0, !0, !0, !0, !0, !0, !0, !0, !0, !0, !0, !0, !0, !0, !0, !0, !0, !0, !0, !0, !0, !0, !0, !0, !0, !0, !0, !0, !0, !0, !0, !0, !0, !0, !0, !0, !0, !0, !0, !0, !0, !0, !0, !0, !0, !0, !0, !0, !0, !0, !0, !0, !0, !0, !0, !0, !0, !0, !0, !0, !0, !0, !0, !0, !0, !0, !0, !0, !0, !0, !0, !0, !0, !0, !0, !0, !0, !0, !0, !0, !0, !0, !0, !0, !0, !0, !0, !0, !0, !0, !0, !0, !0, !0, !0, !0, !0, !0, !0, !0, !0, !0, !0, !0, !0, !0, !0, !0, !0, !0, !0, !0, !0, !0, !0, !0, !0, !0, !0, !0, !0, !0, !0, !0, !0, !0, !0, !0, !0, !0, !0, !0, !0, !0, !0, !0, !0, !0, !0, !0, !0, !0, !0, !0, !0, !0, !0, !0, !0, !0, !0, !0, !0, !0, !0, !0, !0, !0, !0, !0, !0, !0, !0, !0, !0, !0, !0, !0, !0, !0, !0, !0, !0, !0, !0, !0, !0, !0, !0, !0, !0, !0, !0, !0, !0, !0, !0, !0, !0, !0, !0, !0, !0, !0, !0, !0, !0, !0, !0, !0, !0, !0, !0, !0, !0, !0, !0, !0, !0, !0, !0, !0, !0, !0, !0, !0, !0, !0, !0, !0, !0, !0, !0, !0, !0, !0, !0, !0, !0, !0, !0, !0, !0, !0, !0, !0, !0, !0, !0, !0, !0, !0, !0, !0, !0, !0, !0, !0, !0, !0, !0, !0, !0, !0, !0, !0, !0, !0, !0, !0, !0, !0, !0, !0, !0, !0, !0, !0, !0, !0, !0, !0, !0, !0, !0, !0, !0, !0, !0, !0, !0, !0, !0, !0, !0, !0, !0, !0, !0, !0, !0, !0, !0, !0, !0, !0, !0, !0, !0, !0, !0, !0, !0, !0, !0, !0, !0, !0, !0, !0, !0, !0, !0, !0, !0, !0, !0, !0, !0, !0, !0, !0, !0, !0, !0, !0, !0, !0, !0, !0, !0, !0, !0, !0, !0, !0, !0, !0, !0, !0, !0, !0, !0, !0, !0, !0, !0, !0, !0, !0, !0, !0, !0, !0, !0, !0, !0, !0, !0, !0, !0, !0, !0, !0, !0, !0, !0, !0, !0, !0, !0, !0, !0, !0}
!llvm.module.flags = !{!1, !2, !3}
!blackbox_cfg = !{!4}

!0 = !{!"clang version 7.0.0 "}
!1 = !{i32 2, !"Dwarf Version", i32 4}
!2 = !{i32 2, !"Debug Info Version", i32 3}
!3 = !{i32 1, !"wchar_size", i32 4}
!4 = !{}
