Design Route Status
                                               :      # nets :
   ------------------------------------------- : ----------- :
   # of logical nets.......................... :        5444 :
       # of nets not needing routing.......... :        2418 :
           # of internally routed nets........ :        2418 :
       # of routable nets..................... :        3026 :
           # of fully routed nets............. :        3026 :
       # of nets with routing errors.......... :           0 :
   ------------------------------------------- : ----------- :

